\relax 
\citation{Wang}
\citation{Guodong}
\citation{Hershey}
\citation{Wang}
\citation{Hershey}
\citation{Alexnet}
\citation{Resnet}
\citation{Augmentation}
\citation{Wang}
\@writefile{toc}{\contentsline {section}{\numberline {1}Introduction}{1}}
\citation{Wang}
\citation{Guodong}
\citation{Guodong}
\citation{Hershey}
\@writefile{lof}{\contentsline {figure}{\numberline {1}{\ignorespaces A spectrogram.}}{2}}
\newlabel{spectrogram}{{1}{2}}
\@writefile{lof}{\contentsline {figure}{\numberline {2}{\ignorespaces Constellation map obtained from the spectrogram from fig. 1.}}{2}}
\newlabel{constellation}{{2}{2}}
\@writefile{toc}{\contentsline {section}{\numberline {2}Related work}{2}}
\@writefile{toc}{\contentsline {subsection}{\numberline {2.1}An industrial-strength audio search algorithm}{2}}
\@writefile{toc}{\contentsline {subsection}{\numberline {2.2}Content-based audio classification by Support Vector Machines}{2}}
\citation{Adam}
\citation{Relu}
\citation{Hershey}
\citation{Huang}
\citation{Mobilenet}
\citation{Hershey}
\@writefile{lof}{\contentsline {figure}{\numberline {3}{\ignorespaces Evaluation of CNN architectures.}}{3}}
\newlabel{CNN-archs}{{3}{3}}
\@writefile{toc}{\contentsline {subsection}{\numberline {2.3}CNN architectures for large-scale audio classification}{3}}
\@writefile{toc}{\contentsline {subsection}{\numberline {2.4}ACLNet: Efficient end-to-end audio classification CNN}{3}}
\@writefile{toc}{\contentsline {section}{\numberline {3}Deep learning Architectures}{3}}
\@writefile{toc}{\contentsline {subsection}{\numberline {3.1}Convolutional Neural Networks}{3}}
\citation{Goodfellow}
\citation{Goodfellow}
\citation{Goodfellow}
\citation{Hershey}
\citation{Dropout}
\citation{Softmax}
\citation{Alexnet}
\citation{Alexnet}
\@writefile{lof}{\contentsline {figure}{\numberline {4}{\ignorespaces Equivariance to translation in a CNN.}}{4}}
\@writefile{lof}{\contentsline {figure}{\numberline {5}{\ignorespaces Max pooling.}}{4}}
\@writefile{toc}{\contentsline {subsection}{\numberline {3.2}Fully Connected Net}{4}}
\@writefile{toc}{\contentsline {subsection}{\numberline {3.3}AlexNet}{4}}
\citation{Resnet}
\citation{Vgg}
\citation{Resnet}
\@writefile{toc}{\contentsline {subsection}{\numberline {3.4}ResNet-50}{5}}
\@writefile{lof}{\contentsline {figure}{\numberline {6}{\ignorespaces Residual layer in a ResNet.}}{5}}
\newlabel{res-layer}{{6}{5}}
\@writefile{toc}{\contentsline {section}{\numberline {4}Experimental evaluation}{5}}
\@writefile{toc}{\contentsline {subsection}{\numberline {4.1}Dataset}{5}}
\@writefile{toc}{\contentsline {subsection}{\numberline {4.2}Preprocessing}{5}}
\@writefile{toc}{\contentsline {subsection}{\numberline {4.3}Training}{5}}
\@writefile{lof}{\contentsline {figure}{\numberline {7}{\ignorespaces Spectrogram taken from \textit  {Beyonce - Helo} after applying preprocessing steps.}}{6}}
\newlabel{spectr-mel}{{7}{6}}
\@writefile{lot}{\contentsline {table}{\numberline {1}{\ignorespaces Hypher-parameters for training.}}{6}}
\newlabel{Params}{{1}{6}}
\@writefile{toc}{\contentsline {subsection}{\numberline {4.4}Results}{6}}
\@writefile{lof}{\contentsline {figure}{\numberline {8}{\ignorespaces The evolution of ResNet hypher-parameters.}}{6}}
\newlabel{resnet-comp}{{8}{6}}
\@writefile{lof}{\contentsline {figure}{\numberline {9}{\ignorespaces Training accuracies until 50 epochs.}}{6}}
\newlabel{model-comp}{{9}{6}}
\@writefile{lot}{\contentsline {table}{\numberline {2}{\ignorespaces Model comparison on validation set $ V1 $.}}{6}}
\newlabel{model-results1}{{2}{6}}
\@writefile{lot}{\contentsline {table}{\numberline {3}{\ignorespaces Model comparison on validation set $ V2 $.}}{6}}
\newlabel{model-results2}{{3}{6}}
\citation{Gru}
\bibcite{Hershey}{1}
\bibcite{Huang}{2}
\bibcite{Guodong}{3}
\bibcite{Wang}{4}
\bibcite{Adam}{5}
\bibcite{Goodfellow}{6}
\bibcite{Alexnet}{7}
\@writefile{toc}{\contentsline {subsection}{\numberline {4.5}Practical evaluation}{7}}
\@writefile{toc}{\contentsline {section}{\numberline {5}Conclusion}{7}}
\@writefile{toc}{\contentsline {section}{References}{7}}
\bibcite{Resnet}{8}
\bibcite{Softmax}{9}
\bibcite{Augmentation}{10}
\bibcite{Dropout}{11}
\bibcite{Relu}{12}
\bibcite{Vgg}{13}
\bibcite{Mobilenet}{14}
\bibcite{Gru}{15}
\@writefile{toc}{\contentsline {section}{Appendix}{9}}
\@writefile{lof}{\contentsline {figure}{\numberline {10}{\ignorespaces Practical evaluation of AlexNet.}}{9}}
\newlabel{comp}{{10}{9}}
\@writefile{lof}{\contentsline {figure}{\numberline {11}{\ignorespaces Partial confusion matrix on test set.}}{10}}
\newlabel{confussion}{{11}{10}}
